T11_ANOVA
…
unique(Superhero$heronames)

## NULL

####Rename the categories with super hero names

#Superhero
Superhero$heronames<-factor(Superhero$hero, levels = c(1:4), 
     labels = c("Spiderman","Superman", "Hulk", "Ninja Turtle"))
Superhero

## # A tibble: 30 x 4
##    BLANK  hero injury heronames
##    <lgl> <dbl>  <dbl> <fct>    
##  1 NA        1     51 Spiderman
##  2 NA        1     31 Spiderman
##  3 NA        1     58 Spiderman
##  4 NA        1     20 Spiderman
##  5 NA        1     47 Spiderman
##  6 NA        1     37 Spiderman
##  7 NA        1     49 Spiderman
##  8 NA        1     40 Spiderman
##  9 NA        2     69 Superman 
## 10 NA        2     32 Superman 
## # … with 20 more rows
…
