T13_Correlacion
…
The biggest liar data

library(ggplot2)
library(readr)
The_Biggest_Liar <- read_csv("~/Google Drive/Biometry/Biometria 2015/Biometria_2015_RStudio/Data files/The Biggest Liar.csv")

liarData=The_Biggest_Liar 
liarData

## # A tibble: 68 x 3
##    Creativity Position Novice
##         <dbl>    <dbl>  <dbl>
##  1         53        1      0
##  2         36        3      1
##  3         31        4      0
##  4         43        2      0
##  5         30        4      1
##  6         41        1      0
##  7         32        4      0
##  8         54        1      1
##  9         47        2      1
## 10         50        2      0
## # … with 58 more rows
…
